[{
  "title": "UVa Online Judge",
  "slug": "uva online judge",
  "published": true,
  "text": "&lt;a href=&quot;https://uva.onlinejudge.org/&quot;&gt;UVa Online Judge&lt;/a&gt; is an online automated judge for programming problems hosted by University of Valladolid. Its problem archive has over 4300 programming problems containing a variety of topics. You can upload your solution (the program source code) to the website, and the online judge will determine whether it&#39;s correct or not. Typical users that UVa Online Judge aims at are students participating in the ACM International Collegiate Programming Contest (ICPC) and the International Olympiad in Informatics (IOI). However, it is also an indispensible resource for those who prepare for other programming contests, such as &lt;a href=&quot;https://code.google.com/codejam&quot;&gt;Google Code Jam&lt;/a&gt; or &lt;a href=&quot;https://www.facebook.com/hackercup&quot;&gt;Facebook Hacker Cup&lt;/a&gt;.&lt;br&gt;&lt;br&gt;After solving some recommended problems from &lt;a href=&quot;http://www.lulu.com/shop/http://www.lulu.com/shop/steven-halim/competitive-programming-3/paperback/product-21059906.html&quot;&gt;Competitive Programming&lt;/a&gt; by Steven Halim and Felix Halim, I feel not only my understanding of data structures and algorithms increase obviously but also my programming skills get strengthened. Therefore, in the near future, I&#39;ll continue submitting my sources onto the website. I also begin to review my codes written before and post them &lt;a href=&quot;/uva-online-judge&quot;&gt;here&lt;/a&gt;. There are some solutions already post on my &lt;a href=&quot;https://github.com/seraph317/uva_online_judge&quot;&gt;github&lt;/a&gt; repository."
},
{
  "title": "KanbanFlow",
  "slug": "kanbanflow",
  "published": true,
  "text": "&lt;a href=&quot;https://kanbanflow.com/&quot;&gt;KanbanFlow&lt;/a&gt; is a time and task management tool combining the popular &lt;a href=&quot;https://en.wikipedia.org/wiki/Pomodoro_Technique&quot;&gt;Pomodoro Technique&lt;/a&gt; with the &lt;a href=&quot;https://en.wikipedia.org/wiki/Kanban_(development)&quot;&gt;Kanban&lt;/a&gt; method. The Kanban board enables users to visualize their work and the Pomodoro timer helps them track their time and keep them focus while working. This web app was suggested by John Sonmez in his &lt;a href=&quot;https://www.manning.com/books/soft-skills&quot;&gt;Soft Skills&lt;/a&gt; book.&lt;br&gt;&lt;br&gt;The flow of the Pomodoro Technique is very simple. First decide what task to work on. Then start the timer and work for 25 minutes with full focus. After that take a short break (5 minutes). Each 25-minute work plusing 5-minute break is called one Pomodoro. Every four Pomodoro take a longer break (15 minute). The main advantages of working with Pomodoro include letting users make plan more accurately according to time spent report and hugely boosting work productivity because the ranking system makes work more like a game.&lt;br&gt;&lt;br&gt;I&#39;ve used KanbanFlow for several months, and sometimes my global rank can enter top 10. Now I work with KanbanFlow when studying or reading because I feel myself relatively easily distracted or losing patience in these tasks. Although the alarm and 5-minute break can be annoyances while doing a project, Kanbanflow is still a wonderful finding for me."
}]