{
    "CA": [
        {
            "time": "9:00",
            "title": "Robotic Planet"
        },
        {
            "time": "10:00",
            "title": "Quantum Computing"
        },
        {
            "time": "11:30",
            "title": "Humanosphere"
        },
        {
            "time": "1:00",
            "title": "Artificial Intelligence"
        },
        {
            "time": "2:00",
            "title": "Brain Computer Interface"
        },
        {
            "time": "3:00",
            "title": "Immortality"
        },
        {
            "time": "4:30",
            "title": "Time Machine"
        }
    ],
    "NY": [
       {
            "time": "9:00",
            "title": "Cyborg"
        },
        {
            "time": "10:00",
            "title": "Programmable Matter"
        },
        {
            "time": "11:30",
            "title": "De-Extinction"
        },
        {
            "time": "1:00",
            "title": "Volumetric and Holographic Display"
        },
        {
            "time": "2:00",
            "title": "Human Augmentation"
        },
        {
            "time": "3:00",
            "title": "Personalize Medicine"
        },
        {
            "time": "4:30",
            "title": "Doomsday Device"
        }
    ],
    "TW": [
       {
            "time": "9:00",
            "title": "Self-Reconfiguring Modular Robot"
        },
        {
            "time": "10:00",
            "title": "Internet of Things"
        },
        {
            "time": "11:30",
            "title": "Bioprinting"
        },
        {
            "time": "1:00",
            "title": "Wireless Power"
        },
        {
            "time": "2:00",
            "title": "Android"
        },
        {
            "time": "3:00",
            "title": "Utopia"
        },
        {
            "time": "4:30",
            "title": "Infinite Energy"
        }
    ]
}